Plotly
…
data("instacart")

instacart = 
  instacart %>%
  select(order_id, product_id, order_number, order_hour_of_day,product_name, department) %>% 
  filter(product_id <= 10)
instacart

## # A tibble: 247 x 6
##    order_id product_id order_number order_hour_of_day product_name    department
##       <int>      <int>        <int>             <int> <chr>           <chr>     
##  1     5368         10           33                14 Sparkling Oran… beverages 
##  2     6695          1           29                 1 Chocolate Sand… snacks    
##  3    14172         10           30                17 Sparkling Oran… beverages 
##  4    48361          1            5                14 Chocolate Sand… snacks    
##  5    50978         10            6                 8 Sparkling Oran… beverages 
##  6    63399         10           10                17 Sparkling Oran… beverages 
##  7    63770          1            7                 6 Chocolate Sand… snacks    
##  8    72425          3           22                16 Robust Golden … beverages 
##  9    75339          1            6                13 Chocolate Sand… snacks    
## 10    80409         10            9                15 Sparkling Oran… beverages 
## # … with 237 more rows
…
